{
   "geocoded_waypoints" : [
      {
         "geocoder_status" : "OK",
         "place_id" : "ChIJPWKlGYdcyoURg3W5m7eovWI",
         "types" : [ "street_address" ]
      },
      {
         "geocoder_status" : "OK",
         "place_id" : "ChIJaUjU60JZyoUR-NudFfolOgQ",
         "types" : [ "route" ]
      }
   ],
   "routes" : [
      {
         "bounds" : {
            "northeast" : {
               "lat" : 16.8024737,
               "lng" : -99.76871610000001
            },
            "southwest" : {
               "lat" : 16.7688511,
               "lng" : -99.8256629
            }
         },
         "copyrights" : "Datos de mapas ©2017 Google, INEGI",
         "legs" : [
            {
               "distance" : {
                  "text" : "8,2 km",
                  "value" : 8162
               },
               "duration" : {
                  "text" : "14 min",
                  "value" : 818
               },
               "end_address" : "Revolcadero, Granjas del Marqués, 39890 Acapulco, Gro., México",
               "end_location" : {
                  "lat" : 16.7918421,
                  "lng" : -99.8252416
               },
               "start_address" : "Blvrd de las Naciones 2906, Aeropuerto, Acapulco, Gro., México",
               "start_location" : {
                  "lat" : 16.7688511,
                  "lng" : -99.76871610000001
               },
               "steps" : [
                  {
                     "distance" : {
                        "text" : "5,0 km",
                        "value" : 4998
                     },
                     "duration" : {
                        "text" : "7 min",
                        "value" : 392
                     },
                     "end_location" : {
                        "lat" : 16.7939494,
                        "lng" : -99.80758489999999
                     },
                     "html_instructions" : "Dirígete hacia el \u003cb\u003enoroeste\u003c/b\u003e en \u003cb\u003eAcapulco - Aeropuerto Acapulco\u003c/b\u003e/\u003cb\u003eBlvrd de las Naciones\u003c/b\u003e hacia \u003cb\u003eCongreso de Anáhuac\u003c/b\u003e",
                     "polyline" : {
                        "points" : "idjeBna}_Ry@pAaCvDKNwAzBkBrCa@p@Yd@MRaAzAU\\CDaAxA{@rA}AbCgElGgEzG]n@oFjIyJxOoClEe@r@gC~DcBhCcCxDsB`DsAtByA`CaAzAyAzByC|EoAtBc@x@EJkB|D{DlIy@bB?@e@z@Yl@]r@q@zAsGlNuApCm@lAELWj@[l@O\\KTk@pAKRa@|@wBrEy@dB}@nBgA`CUh@}AdD_BjDU`@iAbCc@~@}@lBuBjE"
                     },
                     "start_location" : {
                        "lat" : 16.7688511,
                        "lng" : -99.76871610000001
                     },
                     "travel_mode" : "DRIVING"
                  },
                  {
                     "distance" : {
                        "text" : "1,8 km",
                        "value" : 1759
                     },
                     "duration" : {
                        "text" : "2 min",
                        "value" : 147
                     },
                     "end_location" : {
                        "lat" : 16.8018955,
                        "lng" : -99.8218598
                     },
                     "html_instructions" : "Gira ligeramente a la \u003cb\u003eizquierda\u003c/b\u003e para continuar en \u003cb\u003eAcapulco - Aeropuerto Acapulco\u003c/b\u003e/\u003cb\u003eBlvrd de las Naciones\u003c/b\u003e",
                     "maneuver" : "turn-slight-left",
                     "polyline" : {
                        "points" : "eaoeBjtd`RE^aDzGWl@MXIN_C~Ee@bA]n@}AdDu@bBeHjOi@hAk@lAEHEH_AtBmAjCe@bAaApB_ArBc@`AgA~BaBnD[t@EHwA~C"
                     },
                     "start_location" : {
                        "lat" : 16.7939494,
                        "lng" : -99.80758489999999
                     },
                     "travel_mode" : "DRIVING"
                  },
                  {
                     "distance" : {
                        "text" : "0,1 km",
                        "value" : 116
                     },
                     "duration" : {
                        "text" : "1 min",
                        "value" : 31
                     },
                     "end_location" : {
                        "lat" : 16.8024737,
                        "lng" : -99.82274439999999
                     },
                     "html_instructions" : "Gira ligeramente a la \u003cb\u003ederecha\u003c/b\u003e hacia \u003cb\u003eFlanboyant\u003c/b\u003e",
                     "maneuver" : "turn-slight-right",
                     "polyline" : {
                        "points" : "{rpeBrmg`RG@EBCBCBGJS^]z@Q\\KRCF"
                     },
                     "start_location" : {
                        "lat" : 16.8018955,
                        "lng" : -99.8218598
                     },
                     "travel_mode" : "DRIVING"
                  },
                  {
                     "distance" : {
                        "text" : "0,5 km",
                        "value" : 468
                     },
                     "duration" : {
                        "text" : "1 min",
                        "value" : 80
                     },
                     "end_location" : {
                        "lat" : 16.7988081,
                        "lng" : -99.82489339999999
                     },
                     "html_instructions" : "Gira a la \u003cb\u003eizquierda\u003c/b\u003e hacia \u003cb\u003ePaseo de los Manglares\u003c/b\u003e",
                     "maneuver" : "turn-left",
                     "polyline" : {
                        "points" : "mvpeBbsg`RLDVLh@T`@NlCvA\\PvCzAdHlD"
                     },
                     "start_location" : {
                        "lat" : 16.8024737,
                        "lng" : -99.82274439999999
                     },
                     "travel_mode" : "DRIVING"
                  },
                  {
                     "distance" : {
                        "text" : "0,7 km",
                        "value" : 722
                     },
                     "duration" : {
                        "text" : "2 min",
                        "value" : 120
                     },
                     "end_location" : {
                        "lat" : 16.7925494,
                        "lng" : -99.8254623
                     },
                     "html_instructions" : "Mantente a la \u003cb\u003eizquierda\u003c/b\u003e para continuar por \u003cb\u003eRevolcadero\u003c/b\u003e",
                     "maneuver" : "keep-left",
                     "polyline" : {
                        "points" : "q_peBp`h`Rz@Jn@RTH^Pl@XRFTDT@RBDAN?XEZCTEJCH?F?H?F@\\Hl@T~@\\XDF?H?J?RAVEFCTIXKZKVGTETAb@Af@@l@@t@Fn@H`@?N?D?lC@"
                     },
                     "start_location" : {
                        "lat" : 16.7988081,
                        "lng" : -99.82489339999999
                     },
                     "travel_mode" : "DRIVING"
                  },
                  {
                     "distance" : {
                        "text" : "0,1 km",
                        "value" : 99
                     },
                     "duration" : {
                        "text" : "1 min",
                        "value" : 48
                     },
                     "end_location" : {
                        "lat" : 16.7918421,
                        "lng" : -99.8252416
                     },
                     "html_instructions" : "Mantente a la \u003cb\u003eizquierda\u003c/b\u003e.\u003cdiv style=\"font-size:0.9em\"\u003eEl destino está a la izquierda.\u003c/div\u003e",
                     "maneuver" : "keep-left",
                     "polyline" : {
                        "points" : "mxneBbdh`R@g@T?`AERAL@P@"
                     },
                     "start_location" : {
                        "lat" : 16.7925494,
                        "lng" : -99.8254623
                     },
                     "travel_mode" : "DRIVING"
                  }
               ],
               "traffic_speed_entry" : [],
               "via_waypoint" : []
            }
         ],
         "overview_polyline" : {
            "points" : "idjeBna}_R_HtKuD~F}CxEyCvEgElGgEzGmGzJiOfVuKvPcJtNsFxIsBnDgJzR}A~CeIhQcC~EiAdCeBxDwHjPkOz[E^aDzGe@fAoDrHwMdYaBjDcO|[a@~@wA~CG@IFKNoAlCCFLD`Ab@nDfBtDlBdHlDz@JdA\\lAj@h@L~@BvASb@@jA^~@\\XDP?^A^In@Ur@Sj@GjA?bBHn@H`@?T?lC@@g@vAEr@@"
         },
         "summary" : "Acapulco - Aeropuerto Acapulco/Blvrd de las Naciones",
         "warnings" : [],
         "waypoint_order" : []
      }
   ],
   "status" : "OK"
}